Intro to Data Science
…
  - **Rows** are observations
  
  - **Columns** are values

--

- We can look at this object directly

``` r
df
```

```
## # A tibble: 2,546 × 16
##    unitid instnm stabbr grad_debt_mdn control region preddeg
##     <int> <chr>  <chr>          <int> <chr>   <chr>  <chr>  
##  1 100654 Alaba… AL             33375 Public  South… Bachel…
##  2 100663 Unive… AL             22500 Public  South… Bachel…
##  3 100690 Amrid… AL             27334 Private South… Associ…
##  4 100706 Unive… AL             21607 Public  South… Bachel…
##  5 100724 Alaba… AL             32000 Public  South… Bachel…
##  6 100751 The U… AL             23250 Public  South… Bachel…
##  7 100760 Centr… AL             12500 Public  South… Associ…
##  8 100812 Athen… AL             19500 Public  South… Bachel…
##  9 100830 Aubur… AL             24826 Public  South… Bachel…
## 10 100858 Aubur… AL             21281 Public  South… Bachel…
## # ℹ 2,536 more rows
## # ℹ 9 more variables: openadmp <int>, adm_rate <dbl>,
## #   ccbasic <int>, sat_avg <int>, md_earn_wne_p6 <int>,
## #   ugds <int>, costt4_a <int>, selective <dbl>,
## #   research_u <dbl>
```
…
  - to other schools in terms of admissions rates?

--

- `arrange` will sort the data based on a column (ascending!)

``` r
df %>%
  arrange(sat_avg) %>% # Sort data by SAT scores
  select(instnm,sat_avg) # Only look at name and SAT scores
```

```
## # A tibble: 2,546 × 2
##    instnm                        sat_avg
##    <chr>                           <int>
##  1 Morgan State University           737
##  2 Saint Augustine's University      847
##  3 Albany State University           849
##  4 Holy Names University             851
##  5 Livingstone College               854
##  6 Virginia Union University         855
##  7 Manor College                     861
##  8 Saint Louis Christian College     865
##  9 Bacone College                    875
## 10 Paine College                     876
## # ℹ 2,536 more rows
```

---

# Manipulating: `arrange()`

- Vandy is not in the bottom 10 schools

``` r
df %>%
  arrange(sat_avg) %>% # Sort data by SAT scores
  select(instnm,sat_avg) # Only look at name and SAT scores
```

```
## # A tibble: 2,546 × 2
##    instnm                        sat_avg
##    <chr>                           <int>
##  1 Morgan State University           737
##  2 Saint Augustine's University      847
##  3 Albany State University           849
##  4 Holy Names University             851
##  5 Livingstone College               854
##  6 Virginia Union University         855
##  7 Manor College                     861
##  8 Saint Louis Christian College     865
##  9 Bacone College                    875
## 10 Paine College                     876
## # ℹ 2,536 more rows
```

---

# Manipulating: `arrange()`

- Use `desc()` to order in descending values...Vandy not in top 10 either

``` r
df %>%
  arrange(desc(sat_avg)) %>% # Sort data by SAT scores (descending)
  select(instnm,sat_avg) # Only look at name and SAT scores
```

```
## # A tibble: 2,546 × 2
##    instnm                                 sat_avg
##    <chr>                                    <int>
##  1 California Institute of Technology        1557
##  2 Massachusetts Institute of Technology     1547
##  3 University of Chicago                     1528
##  4 Harvey Mudd College                       1526
##  5 Duke University                           1522
##  6 Franklin W Olin College of Engineering    1522
##  7 Washington University in St Louis         1520
##  8 Rice University                           1520
##  9 Yale University                           1517
## 10 Harvard University                        1517
## # ℹ 2,536 more rows
```
…
# Manipulating: `arrange()`

- What if we look only at "selective" schools (i.e., those who accept less than 10% of applicants)?

--

``` r
df %>%
  filter(adm_rate < .1) %>% # Only look at schools who accept less than 10%
  arrange(sat_avg,adm_rate) %>% # Sort data by SAT scores AND THEN admissions rates (breaks ties)
  select(instnm,adm_rate,sat_avg) # Only look at name, admissions rate, and SAT scores
```

```
## # A tibble: 25 × 3
##    instnm                                   adm_rate sat_avg
##    <chr>                                       <dbl>   <int>
##  1 Colby College                              0.0967    1456
##  2 Swarthmore College                         0.0893    1469
##  3 Pomona College                             0.074     1480
##  4 Dartmouth College                          0.0793    1500
##  5 Stanford University                        0.0434    1503
##  6 Northwestern University                    0.0905    1506
##  7 Columbia University in the City of New …   0.0545    1511
##  8 Brown University                           0.0707    1511
##  9 University of Pennsylvania                 0.0766    1511
## 10 Vanderbilt University                      0.0912    1515
## # ℹ 15 more rows
```
…
# How does Vandy compare?

--

- `arrange` in descending order

``` r
df %>%
  filter(adm_rate < .1) %>%
  arrange(desc(sat_avg),adm_rate) %>%
  select(instnm,adm_rate,sat_avg)
```

```
## # A tibble: 25 × 3
##    instnm                                   adm_rate sat_avg
##    <chr>                                       <dbl>   <int>
##  1 California Institute of Technology         0.0642    1557
##  2 Massachusetts Institute of Technology      0.067     1547
##  3 University of Chicago                      0.0617    1528
##  4 Duke University                            0.076     1522
##  5 Rice University                            0.0872    1520
##  6 Harvard University                         0.0464    1517
##  7 Princeton University                       0.0578    1517
##  8 Yale University                            0.0608    1517
##  9 Vanderbilt University                      0.0912    1515
## 10 Columbia University in the City of New …   0.0545    1511
## # ℹ 15 more rows
```
…
# More complicated? More `%>%`!

--

- Less selective schools by SAT with debt and state

``` r
df %>%
  filter(adm_rate > .2 & adm_rate < .3) %>% # Less selective schools (accept between 20% and 30%)
  arrange(stabbr,desc(sat_avg)) %>% # Sort by state name, then by SAT scores
  select(instnm,sat_avg,grad_debt_mdn,stabbr) # Only look at some columns
```

```
## # A tibble: 37 × 4
##    instnm                       sat_avg grad_debt_mdn stabbr
##    <chr>                          <int>         <int> <chr> 
##  1 Heritage Christian Universi…      NA            NA AL    
##  2 University of California-Sa…    1370         15000 CA    
##  3 California Polytechnic Stat…    1342         19501 CA    
##  4 University of California-Ir…    1306         15488 CA    
##  5 California Institute of the…      NA         27000 CA    
##  6 University of Miami             1371         17125 FL    
##  7 Georgia Institute of Techno…    1418         23000 GA    
##  8 Point University                 986         26000 GA    
##  9 Grinnell College                1457         17500 IA    
## 10 St Luke's College                 NA         17750 IA    
## # ℹ 27 more rows
```
…
- We will return to this in the lectures on **data wrangling**
  
--

- For now, how many schools don't report SAT scores?

``` r
df %>%
  filter(is.na(sat_avg)) %>% # Only look at schools that DON'T report SATs
  select(instnm,stabbr) # Only look at the name and the state
```

```
## # A tibble: 1,317 × 2
##    instnm                                         stabbr
##    <chr>                                          <chr> 
##  1 Amridge University                             AL    
##  2 Central Alabama Community College              AL    
##  3 Athens State University                        AL    
##  4 Chattahoochee Valley Community College         AL    
##  5 Coastal Alabama Community College              AL    
##  6 Gadsden State Community College                AL    
##  7 George C Wallace State Community College-Selma AL    
##  8 Heritage Christian University                  AL    
##  9 Jefferson State Community College              AL    
## 10 Lurleen B Wallace Community College            AL    
## # ℹ 1,307 more rows
```
…
--

  - 1: the admissions rate is less than 10%
  
  - 0: otherwise
  
--

``` r
df %>%
  select(instnm,selective,adm_rate)
```

```
## # A tibble: 2,546 × 3
##    instnm                              selective adm_rate
##    <chr>                                   <dbl>    <dbl>
##  1 Alabama A & M University                    0    0.918
##  2 University of Alabama at Birmingham         0    0.737
##  3 Amridge University                         NA   NA    
##  4 University of Alabama in Huntsville         0    0.826
##  5 Alabama State University                    0    0.969
##  6 The University of Alabama                   0    0.827
##  7 Central Alabama Community College          NA   NA    
##  8 Athens State University                    NA   NA    
##  9 Auburn University at Montgomery             0    0.904
## 10 Auburn University                           0    0.807
## # ℹ 2,536 more rows
```
…
