Text, Tweets, and Sentiment
…
# Odds Step 1

``` r
(odds1 <- tweet_words %>%
  count(word, PostPresident) %>%
  filter(sum(n) >= 5) %>%
  spread(PostPresident, n, fill = 0) %>%
  ungroup() %>%
  mutate(totFALSE = sum(`FALSE`),
         totTRUE = sum(`TRUE`)))
```

```
## # A tibble: 45,221 × 5
##    word      `FALSE` `TRUE` totFALSE totTRUE
##    <chr>       <dbl>  <dbl>    <dbl>   <dbl>
##  1 a               6     27   189217  257487
##  2 aa              1      2   189217  257487
##  3 aaa            11      1   189217  257487
##  4 aamp            1      0   189217  257487
##  5 aand            0      1   189217  257487
##  6 aaron           2      1   189217  257487
##  7 ab              1      2   189217  257487
##  8 abaco           0      1   189217  257487
##  9 abandon         6      8   189217  257487
## 10 abandoned      13     11   189217  257487
## # ℹ 45,211 more rows
```

---

# Odds Step 2

``` r
(odds2 <- odds1 %>%
  mutate(propFALSE = (`FALSE` + 1) / (totFALSE + 1),
         propTRUE = (`TRUE` + 1) / (totTRUE + 1)))
```

```
## # A tibble: 45,221 × 7
##    word   `FALSE` `TRUE` totFALSE totTRUE propFALSE propTRUE
##    <chr>    <dbl>  <dbl>    <dbl>   <dbl>     <dbl>    <dbl>
##  1 a            6     27   189217  257487   3.70e-5  1.09e-4
##  2 aa           1      2   189217  257487   1.06e-5  1.17e-5
##  3 aaa         11      1   189217  257487   6.34e-5  7.77e-6
##  4 aamp         1      0   189217  257487   1.06e-5  3.88e-6
##  5 aand         0      1   189217  257487   5.28e-6  7.77e-6
##  6 aaron        2      1   189217  257487   1.59e-5  7.77e-6
##  7 ab           1      2   189217  257487   1.06e-5  1.17e-5
##  8 abaco        0      1   189217  257487   5.28e-6  7.77e-6
##  9 aband…       6      8   189217  257487   3.70e-5  3.50e-5
## 10 aband…      13     11   189217  257487   7.40e-5  4.66e-5
## # ℹ 45,211 more rows
```

---

# Odds Step 3

``` r
(odds3 <- odds2 %>%
  mutate(odds = propTRUE / propFALSE))
```

```
## # A tibble: 45,221 × 8
##    word   `FALSE` `TRUE` totFALSE totTRUE propFALSE propTRUE
##    <chr>    <dbl>  <dbl>    <dbl>   <dbl>     <dbl>    <dbl>
##  1 a            6     27   189217  257487   3.70e-5  1.09e-4
##  2 aa           1      2   189217  257487   1.06e-5  1.17e-5
##  3 aaa         11      1   189217  257487   6.34e-5  7.77e-6
##  4 aamp         1      0   189217  257487   1.06e-5  3.88e-6
##  5 aand         0      1   189217  257487   5.28e-6  7.77e-6
##  6 aaron        2      1   189217  257487   1.59e-5  7.77e-6
##  7 ab           1      2   189217  257487   1.06e-5  1.17e-5
##  8 abaco        0      1   189217  257487   5.28e-6  7.77e-6
##  9 aband…       6      8   189217  257487   3.70e-5  3.50e-5
## 10 aband…      13     11   189217  257487   7.40e-5  4.66e-5
## # ℹ 45,211 more rows
## # ℹ 1 more variable: odds <dbl>
```
…
<img src="ISP_lecture_12_slides_files/figure-html/unnamed-chunk-7-1.svg" style="display: block; margin: auto;" />

---

# Odds Step 4

``` r
(prepost_logodds <- odds3 %>%
  mutate(logodds = log(odds)))
```

```
## # A tibble: 45,221 × 9
##    word   `FALSE` `TRUE` totFALSE totTRUE propFALSE propTRUE
##    <chr>    <dbl>  <dbl>    <dbl>   <dbl>     <dbl>    <dbl>
##  1 a            6     27   189217  257487   3.70e-5  1.09e-4
##  2 aa           1      2   189217  257487   1.06e-5  1.17e-5
##  3 aaa         11      1   189217  257487   6.34e-5  7.77e-6
##  4 aamp         1      0   189217  257487   1.06e-5  3.88e-6
##  5 aand         0      1   189217  257487   5.28e-6  7.77e-6
##  6 aaron        2      1   189217  257487   1.59e-5  7.77e-6
##  7 ab           1      2   189217  257487   1.06e-5  1.17e-5
##  8 abaco        0      1   189217  257487   5.28e-6  7.77e-6
##  9 aband…       6      8   189217  257487   3.70e-5  3.50e-5
## 10 aband…      13     11   189217  257487   7.40e-5  4.66e-5
## # ℹ 45,211 more rows
## # ℹ 2 more variables: odds <dbl>, logodds <dbl>
```
…
---

# Meaning

``` r
nrc
```

```
## # A tibble: 13,901 × 2
##    word        sentiment
##    <chr>       <chr>    
##  1 abacus      trust    
##  2 abandon     fear     
##  3 abandon     negative 
##  4 abandon     sadness  
##  5 abandoned   anger    
##  6 abandoned   fear     
##  7 abandoned   negative 
##  8 abandoned   sadness  
##  9 abandonment anger    
## 10 abandonment fear     
## # ℹ 13,891 more rows
```
…
---

# Sentiment overall

``` r
tweet_sentiment_summary
```

```
## # A tibble: 45,592 × 13
## # Groups:   PostPresident [2]
##    PostPresident   document anger anticipation disgust  fear
##    <lgl>              <dbl> <int>        <int>   <int> <int>
##  1 FALSE         1701461182     1            3       1     0
##  2 FALSE         1741160716     1            1       1     0
##  3 FALSE         1924074459     1            1       0     0
##  4 FALSE         2045871770     1            0       0     0
##  5 FALSE         2317112756     1            0       0     1
##  6 FALSE         2346367430     2            1       1     2
##  7 FALSE         2403435685     1            2       1     2
##  8 FALSE         3688564134     1            0       1     1
##  9 FALSE         7677152231     1            1       1     0
## 10 FALSE         8083871612     1            1       1     0
## # ℹ 45,582 more rows
## # ℹ 7 more variables: joy <int>, negative <int>,
## #   positive <int>, sadness <int>, surprise <int>,
## #   trust <int>, sentiment <int>
```
…
``` r
require(tidyverse)
require(maps)
require(mapproj)

# Load dataset included in maps package
states48 <- map_data('state')

states48 %>%
  as_tibble()
```

```
## # A tibble: 15,537 × 6
##     long   lat group order region  subregion
##    <dbl> <dbl> <dbl> <int> <chr>   <chr>    
##  1 -87.5  30.4     1     1 alabama <NA>     
##  2 -87.5  30.4     1     2 alabama <NA>     
##  3 -87.5  30.4     1     3 alabama <NA>     
##  4 -87.5  30.3     1     4 alabama <NA>     
##  5 -87.6  30.3     1     5 alabama <NA>     
##  6 -87.6  30.3     1     6 alabama <NA>     
##  7 -87.6  30.3     1     7 alabama <NA>     
##  8 -87.6  30.3     1     8 alabama <NA>     
##  9 -87.7  30.3     1     9 alabama <NA>     
## 10 -87.8  30.3     1    10 alabama <NA>     
## # ℹ 15,527 more rows
```
…
