Intro to R
…
--

- We now have the contents of `sc_debt.Rds` stored in the object `df`

--

- We can look at this object directly

``` r
df
```

```
## # A tibble: 2,546 × 16
##    unitid instnm stabbr grad_debt_mdn control region preddeg
##     <int> <chr>  <chr>          <int> <chr>   <chr>  <chr>  
##  1 100654 Alaba… AL             33375 Public  South… Bachel…
##  2 100663 Unive… AL             22500 Public  South… Bachel…
##  3 100690 Amrid… AL             27334 Private South… Associ…
##  4 100706 Unive… AL             21607 Public  South… Bachel…
##  5 100724 Alaba… AL             32000 Public  South… Bachel…
##  6 100751 The U… AL             23250 Public  South… Bachel…
##  7 100760 Centr… AL             12500 Public  South… Associ…
##  8 100812 Athen… AL             19500 Public  South… Bachel…
##  9 100830 Aubur… AL             24826 Public  South… Bachel…
## 10 100858 Aubur… AL             21281 Public  South… Bachel…
## # ℹ 2,536 more rows
## # ℹ 9 more variables: openadmp <int>, adm_rate <dbl>,
## #   ccbasic <int>, sat_avg <int>, md_earn_wne_p6 <int>,
## #   ugds <int>, costt4_a <int>, selective <dbl>,
## #   research_u <dbl>
```
…
--

  - Literally means "not"
  
--

- Drop rows with "of" in the school name

``` r
df %>%
  filter(!str_detect(instnm,"of"))
```

```
## # A tibble: 2,025 × 16
##    unitid instnm stabbr grad_debt_mdn control region preddeg
##     <int> <chr>  <chr>          <int> <chr>   <chr>  <chr>  
##  1 100654 Alaba… AL             33375 Public  South… Bachel…
##  2 100690 Amrid… AL             27334 Private South… Associ…
##  3 100724 Alaba… AL             32000 Public  South… Bachel…
##  4 100760 Centr… AL             12500 Public  South… Associ…
##  5 100812 Athen… AL             19500 Public  South… Bachel…
##  6 100830 Aubur… AL             24826 Public  South… Bachel…
##  7 100858 Aubur… AL             21281 Public  South… Bachel…
##  8 100937 Birmi… AL             25773 Private South… Bachel…
##  9 101028 Chatt… AL             11931 Public  South… Associ…
## 10 101161 Coast… AL             11000 Public  South… Associ…
## # ℹ 2,015 more rows
## # ℹ 9 more variables: openadmp <int>, adm_rate <dbl>,
## #   ccbasic <int>, sat_avg <int>, md_earn_wne_p6 <int>,
## #   ugds <int>, costt4_a <int>, selective <dbl>,
## #   research_u <dbl>
```

---

# Manipulating the Data

- (same as...)

``` r
df %>%
  filter(!grepl("of",instnm))
```

```
## # A tibble: 2,025 × 16
##    unitid instnm stabbr grad_debt_mdn control region preddeg
##     <int> <chr>  <chr>          <int> <chr>   <chr>  <chr>  
##  1 100654 Alaba… AL             33375 Public  South… Bachel…
##  2 100690 Amrid… AL             27334 Private South… Associ…
##  3 100724 Alaba… AL             32000 Public  South… Bachel…
##  4 100760 Centr… AL             12500 Public  South… Associ…
##  5 100812 Athen… AL             19500 Public  South… Bachel…
##  6 100830 Aubur… AL             24826 Public  South… Bachel…
##  7 100858 Aubur… AL             21281 Public  South… Bachel…
##  8 100937 Birmi… AL             25773 Private South… Bachel…
##  9 101028 Chatt… AL             11931 Public  South… Associ…
## 10 101161 Coast… AL             11000 Public  South… Associ…
## # ℹ 2,015 more rows
## # ℹ 9 more variables: openadmp <int>, adm_rate <dbl>,
## #   ccbasic <int>, sat_avg <int>, md_earn_wne_p6 <int>,
## #   ugds <int>, costt4_a <int>, selective <dbl>,
## #   research_u <dbl>
```
…
---

# Manipulating: `select()`

- We can use `matches()` function with `select()` in a manner similar to `str_detect()`

``` r
df %>%
  select(matches("_"))
```

```
## # A tibble: 2,546 × 6
##    grad_debt_mdn adm_rate sat_avg md_earn_wne_p6 costt4_a
##            <int>    <dbl>   <int>          <int>    <int>
##  1         33375    0.918     939          25200    23053
##  2         22500    0.737    1234          35100    24495
##  3         27334   NA          NA          30700    14800
##  4         21607    0.826    1319          36200    23917
##  5         32000    0.969     946          22600    21866
##  6         23250    0.827    1261          37400    29872
##  7         12500   NA          NA          23100    10493
##  8         19500   NA          NA          33400       NA
##  9         24826    0.904    1082          30100    19849
## 10         21281    0.807    1300          39500    31590
## # ℹ 2,536 more rows
## # ℹ 1 more variable: research_u <dbl>
```
…
--

- `mutate()` creates a new variable

--

``` r
df %>%
  mutate(newvar = 1) %>%
  select(instnm,newvar)
```

```
## # A tibble: 2,546 × 2
##    instnm                              newvar
##    <chr>                                <dbl>
##  1 Alabama A & M University                 1
##  2 University of Alabama at Birmingham      1
##  3 Amridge University                       1
##  4 University of Alabama in Huntsville      1
##  5 Alabama State University                 1
##  6 The University of Alabama                1
##  7 Central Alabama Community College        1
##  8 Athens State University                  1
##  9 Auburn University at Montgomery          1
## 10 Auburn University                        1
## # ℹ 2,536 more rows
```
…
- One final `tidyverse` function: `group_by()`

--

- Let's use the newly created `selective` variable which is either 1 or 0

--

``` r
df %>%
  select(instnm,selective,adm_rate)
```

```
## # A tibble: 2,546 × 3
##    instnm                              selective adm_rate
##    <chr>                                   <dbl>    <dbl>
##  1 Alabama A & M University                    0    0.918
##  2 University of Alabama at Birmingham         0    0.737
##  3 Amridge University                         NA   NA    
##  4 University of Alabama in Huntsville         0    0.826
##  5 Alabama State University                    0    0.969
##  6 The University of Alabama                   0    0.827
##  7 Central Alabama Community College          NA   NA    
##  8 Athens State University                    NA   NA    
##  9 Auburn University at Montgomery             0    0.904
## 10 Auburn University                           0    0.807
## # ℹ 2,536 more rows
```
…
--

``` r
df %>%
  # Schools EXCEPT Vandy
  filter(instnm != "Vanderbilt University") %>%
  select(instnm,stabbr,adm_rate,sat_avg)
```

```
## # A tibble: 2,545 × 4
##    instnm                            stabbr adm_rate sat_avg
##    <chr>                             <chr>     <dbl>   <int>
##  1 Alabama A & M University          AL        0.918     939
##  2 University of Alabama at Birming… AL        0.737    1234
##  3 Amridge University                AL       NA          NA
##  4 University of Alabama in Huntsvi… AL        0.826    1319
##  5 Alabama State University          AL        0.969     946
##  6 The University of Alabama         AL        0.827    1261
##  7 Central Alabama Community College AL       NA          NA
##  8 Athens State University           AL       NA          NA
##  9 Auburn University at Montgomery   AL        0.904    1082
## 10 Auburn University                 AL        0.807    1300
## # ℹ 2,535 more rows
```
…
---

# Advanced Logic: `select()`

- `select` can be paired with `matches()` or `contains()` for similar flexibility (equivalent to `str_detect()` or `grepl()` for `filter()`)

--

``` r
df %>%
  select(contains('inst'))
```

```
## # A tibble: 2,546 × 1
##    instnm                             
##    <chr>                              
##  1 Alabama A & M University           
##  2 University of Alabama at Birmingham
##  3 Amridge University                 
##  4 University of Alabama in Huntsville
##  5 Alabama State University           
##  6 The University of Alabama          
##  7 Central Alabama Community College  
##  8 Athens State University            
##  9 Auburn University at Montgomery    
## 10 Auburn University                  
## # ℹ 2,536 more rows
```

---

# Advanced Logic: `select()`

- `matches` can work with `|`

``` r
df %>%
  select(!matches('_|inst'))
```

```
## # A tibble: 2,546 × 10
##    unitid stabbr control region    preddeg  openadmp ccbasic
##     <int> <chr>  <chr>   <chr>     <chr>       <int>   <int>
##  1 100654 AL     Public  Southeast Bachelo…        2      18
##  2 100663 AL     Public  Southeast Bachelo…        2      15
##  3 100690 AL     Private Southeast Associa…        1      20
##  4 100706 AL     Public  Southeast Bachelo…        2      16
##  5 100724 AL     Public  Southeast Bachelo…        2      19
##  6 100751 AL     Public  Southeast Bachelo…        2      15
##  7 100760 AL     Public  Southeast Associa…        1       2
##  8 100812 AL     Public  Southeast Bachelo…       NA      22
##  9 100830 AL     Public  Southeast Bachelo…        2      18
## 10 100858 AL     Public  Southeast Bachelo…        2      15
## # ℹ 2,536 more rows
## # ℹ 3 more variables: ugds <int>, selective <dbl>,
## #   sel <dbl>
```

---

# Advanced Logic: `select()`

- `select` can also work with `where` to find classes

``` r
df %>%
  select(where(is.numeric))
```

```
## # A tibble: 2,546 × 13
##    unitid grad_debt_mdn openadmp adm_rate ccbasic sat_avg
##     <int>         <int>    <int>    <dbl>   <int>   <int>
##  1 100654         33375        2    0.918      18     939
##  2 100663         22500        2    0.737      15    1234
##  3 100690         27334        1   NA          20      NA
##  4 100706         21607        2    0.826      16    1319
##  5 100724         32000        2    0.969      19     946
##  6 100751         23250        2    0.827      15    1261
##  7 100760         12500        1   NA           2      NA
##  8 100812         19500       NA   NA          22      NA
##  9 100830         24826        2    0.904      18    1082
## 10 100858         21281        2    0.807      15    1300
## # ℹ 2,536 more rows
## # ℹ 7 more variables: md_earn_wne_p6 <int>, ugds <int>,
## #   costt4_a <int>, selective <dbl>, research_u <dbl>,
## #   adm_rate_pct <dbl>, sel <dbl>
```
…
--

- Use `group_by()` and `summarise()`
  
--

``` r
df %>%
  group_by(stabbr) %>%
  summarise(selective_avg = mean(adm_rate,na.rm=T))
```

```
## # A tibble: 51 × 2
##    stabbr selective_avg
##    <chr>          <dbl>
##  1 AK             0.827
##  2 AL             0.654
##  3 AR             0.676
##  4 AZ             0.843
##  5 CA             0.592
##  6 CO             0.768
##  7 CT             0.589
##  8 DC             0.529
##  9 DE             0.627
## 10 FL             0.620
## # ℹ 41 more rows
```
…
