Regression
…
--

  - In `R`, can also get them via `resid()` function

--

``` r
mv %>%
  mutate(errors_manual = gross_log - predict(m),
         errors_resid = resid(m))
```

```
## # A tibble: 3,179 × 24
##    title   rating genre  year released score  votes director
##    <chr>   <chr>  <chr> <dbl> <chr>    <dbl>  <dbl> <chr>   
##  1 Almost… R      Adve…  2000 Septemb…   7.9 2.6 e5 Cameron…
##  2 Americ… R      Come…  2000 April 1…   7.6 5.14e5 Mary Ha…
##  3 Gladia… R      Acti…  2000 May 5, …   8.5 1.4 e6 Ridley …
##  4 Requie… Unrat… Drama  2000 Decembe…   8.3 7.86e5 Darren …
##  5 Memento R      Myst…  2000 May 25,…   8.4 1.20e6 Christo…
##  6 Cast A… PG-13  Adve…  2000 Decembe…   7.8 5.42e5 Robert …
##  7 Scary … R      Come…  2000 July 7,…   6.2 2.38e5 Keenen …
##  8 The Pe… PG-13  Acti…  2000 June 30…   6.4 1.6 e5 Wolfgan…
##  9 Coyote… PG-13  Come…  2000 August …   5.7 1.08e5 David M…
## 10 X-Men   PG-13  Acti…  2000 July 14…   7.4 5.82e5 Bryan S…
## # ℹ 3,169 more rows
## # ℹ 16 more variables: writer <chr>, star <chr>,
## #   country <chr>, budget <dbl>, gross <dbl>,
## #   company <chr>, runtime <dbl>, id <dbl>, imdb_id <chr>,
## #   bechdel_score <dbl>, boxoffice_a <dbl>, language <chr>,
## #   gross_log <dbl>, budget_log <dbl>, errors_manual <dbl>,
## #   errors_resid <dbl>
```
…
